import br.com.drools.corrida.Corrida;
global br.com.drools.corrida.Tarifa tarifa;
dialect  "mvel"

rule "Taxa para corrida diurna com mais de 20 quilometros percorridos"
    when
        umaCorrida:Corrida(noturna == false, distanciaPercorrida > 20);
    then
      	tarifa.setAdicionalNoturno(0);
       	tarifa.setValor(50);
end

rule "Taxa para corrida noturna com mais de 100 quilometros percorridos"
    when
        umaCorrida:Corrida(noturna == true, distanciaPercorrida > 100);
    then
      	tarifa.setAdicionalNoturno(50);
       	tarifa.setValor(250);
end

rule "Taxa para corrida diurna com menos de 20 quilometros percorridos"
    when
        umaCorrida:Corrida(noturna == false, distanciaPercorrida < 20);
    then
      	tarifa.setAdicionalNoturno(0);
       	tarifa.setValor(30);
end
